README
================

## Get the data from [Volcano](https://github.com/rfordatascience/tidytuesday/tree/master/data/2020/2020-05-12) data from TidyTuesday 2020-05-12.

``` r
Volcano<- readr::read_csv("https://raw.githubusercontent.com/rfordatascience/tidytuesday/master/data/2020/2020-05-12/volcano.csv")

Volcano
```

    ## # A tibble: 958 x 26
    ##    volcano_number volcano_name primary_volcano~ last_eruption_y~ country region
    ##             <dbl> <chr>        <chr>            <chr>            <chr>   <chr> 
    ##  1         283001 Abu          Shield(s)        -6850            Japan   Japan~
    ##  2         355096 Acamarachi   Stratovolcano    Unknown          Chile   South~
    ##  3         342080 Acatenango   Stratovolcano(e~ 1972             Guatem~ Méxic~
    ##  4         213004 Acigol-Nevs~ Caldera          -2080            Turkey  Medit~
    ##  5         321040 Adams        Stratovolcano    950              United~ Canad~
    ##  6         283170 Adatarayama  Stratovolcano(e~ 1996             Japan   Japan~
    ##  7         221170 Adwa         Stratovolcano    Unknown          Ethiop~ Afric~
    ##  8         221110 Afdera       Stratovolcano    Unknown          Ethiop~ Afric~
    ##  9         284160 Agrigan      Stratovolcano    1917             United~ Japan~
    ## 10         342100 Agua         Stratovolcano    Unknown          Guatem~ Méxic~
    ## # ... with 948 more rows, and 20 more variables: subregion <chr>,
    ## #   latitude <dbl>, longitude <dbl>, elevation <dbl>, tectonic_settings <chr>,
    ## #   evidence_category <chr>, major_rock_1 <chr>, major_rock_2 <chr>,
    ## #   major_rock_3 <chr>, major_rock_4 <chr>, major_rock_5 <chr>,
    ## #   minor_rock_1 <chr>, minor_rock_2 <chr>, minor_rock_3 <chr>,
    ## #   minor_rock_4 <chr>, minor_rock_5 <chr>, population_within_5_km <dbl>,
    ## #   population_within_10_km <dbl>, population_within_30_km <dbl>,
    ## #   population_within_100_km <dbl>
…
## Modeling Proces.

There is no sufficient data to split into train and test, so we can do a
bootstrap

``` r
library(tidymodels)

Volcano_boot<- bootstraps(Volcano_df)
Volcano_boot
```

    ## # Bootstrap sampling 
    ## # A tibble: 25 x 2
    ##    splits            id         
    ##    <list>            <chr>      
    ##  1 <split [958/347]> Bootstrap01
    ##  2 <split [958/347]> Bootstrap02
    ##  3 <split [958/364]> Bootstrap03
    ##  4 <split [958/357]> Bootstrap04
    ##  5 <split [958/346]> Bootstrap05
    ##  6 <split [958/369]> Bootstrap06
    ##  7 <split [958/357]> Bootstrap07
    ##  8 <split [958/345]> Bootstrap08
    ##  9 <split [958/334]> Bootstrap09
    ## 10 <split [958/353]> Bootstrap10
    ## # ... with 15 more rows
…
Notice how many new info we have, the new rows are because the
oversampling and columns by the new Dummy variables

``` r
juice(Volcano_prep)
```

    ## # A tibble: 1,844 x 14
    ##    volcano_number latitude longitude elevation volcano_type tectonic_settin~
    ##             <dbl>    <dbl>     <dbl>     <dbl> <fct>                   <dbl>
    ##  1         213004   0.746      0.101   -0.131  Other                  -0.289
    ##  2         284141   0.172      1.11    -1.39   Other                  -0.289
    ##  3         282080   0.526      0.975   -0.535  Other                  -0.289
    ##  4         285070   0.899      1.10    -0.263  Other                  -0.289
    ##  5         221060  -0.0377     0.155   -0.920  Other                  -0.289
    ##  6         273088   0.0739     0.888    0.330  Other                  -0.289
    ##  7         266020  -0.451      0.918   -0.0514 Other                  -0.289
    ##  8         257040  -0.989      1.32    -0.380  Other                  -0.289
    ##  9         354004  -0.963     -0.873    2.03   Other                  -0.289
    ## 10         312090   1.33      -1.65    -0.375  Other                  -0.289
    ## # ... with 1,834 more rows, and 8 more variables:
    ## #   tectonic_settings_Rift.zone...Oceanic.crust....15.km. <dbl>,
    ## #   tectonic_settings_Subduction.zone...Continental.crust...25.km. <dbl>,
    ## #   tectonic_settings_Subduction.zone...Oceanic.crust....15.km. <dbl>,
    ## #   tectonic_settings_other <dbl>, major_rock_1_Basalt...Picro.Basalt <dbl>,
    ## #   major_rock_1_Dacite <dbl>,
    ## #   major_rock_1_Trachybasalt...Tephrite.Basanite <dbl>,
    ## #   major_rock_1_other <dbl>
…
``` r
Volcano_res<-
  fit_resamples(
  Volcano_wf,
  resamples= Volcano_boot, #we have 25 resamples 
  control= control_resamples(save_pred = TRUE)
)

Volcano_res
```

    ## # Resampling results
    ## # Bootstrap sampling 
    ## # A tibble: 25 x 5
    ##    splits           id          .metrics        .notes         .predictions     
    ##    <list>           <chr>       <list>          <list>         <list>           
    ##  1 <split [958/347~ Bootstrap01 <tibble [2 x 3~ <tibble [0 x ~ <tibble [347 x 7~
    ##  2 <split [958/347~ Bootstrap02 <tibble [2 x 3~ <tibble [0 x ~ <tibble [347 x 7~
    ##  3 <split [958/364~ Bootstrap03 <tibble [2 x 3~ <tibble [0 x ~ <tibble [364 x 7~
    ##  4 <split [958/357~ Bootstrap04 <tibble [2 x 3~ <tibble [0 x ~ <tibble [357 x 7~
    ##  5 <split [958/346~ Bootstrap05 <tibble [2 x 3~ <tibble [0 x ~ <tibble [346 x 7~
    ##  6 <split [958/369~ Bootstrap06 <tibble [2 x 3~ <tibble [0 x ~ <tibble [369 x 7~
    ##  7 <split [958/357~ Bootstrap07 <tibble [2 x 3~ <tibble [0 x ~ <tibble [357 x 7~
    ##  8 <split [958/345~ Bootstrap08 <tibble [2 x 3~ <tibble [0 x ~ <tibble [345 x 7~
    ##  9 <split [958/334~ Bootstrap09 <tibble [2 x 3~ <tibble [0 x ~ <tibble [334 x 7~
    ## 10 <split [958/353~ Bootstrap10 <tibble [2 x 3~ <tibble [0 x ~ <tibble [353 x 7~
    ## # ... with 15 more rows
…
## Now a final map

``` r
Volcano_predictions<- 
  Volcano_res %>% 
  collect_predictions() %>% 
  mutate(Correct = volcano_type == .pred_class) %>% 
  left_join(Volcano_df %>% 
              mutate(.row= row_number()))
Volcano_predictions
```

    ## # A tibble: 8,721 x 15
    ##    id    .pred_Other .pred_Shield `.pred_Stratovo~ `.pred_Volcanic~  .row
    ##    <chr>       <dbl>        <dbl>            <dbl>            <dbl> <int>
    ##  1 Boot~       0.579       0.131             0.257           0.0334     1
    ##  2 Boot~       0.182       0.0578            0.627           0.133      3
    ##  3 Boot~       0.358       0.0752            0.514           0.0531     4
    ##  4 Boot~       0.297       0.0744            0.607           0.0220     6
    ##  5 Boot~       0.184       0.0565            0.632           0.128     10
    ##  6 Boot~       0.425       0.0198            0.522           0.0326    13
    ##  7 Boot~       0.630       0.0726            0.273           0.0246    15
    ##  8 Boot~       0.535       0.0516            0.388           0.0252    20
    ##  9 Boot~       0.359       0.194             0.384           0.0628    23
    ## 10 Boot~       0.134       0.232             0.509           0.125     24
    ## # ... with 8,711 more rows, and 9 more variables: .pred_class <fct>,
    ## #   volcano_type <fct>, Correct <lgl>, volcano_number <dbl>, latitude <dbl>,
    ## #   longitude <dbl>, elevation <dbl>, tectonic_settings <fct>,
    ## #   major_rock_1 <fct>
…
