MultinomialClasification
…
MultinomialClasification

Julian Avila-Jimenez

3/8/2020

Get the data from Volcano data from TidyTuesday 2020-05-12.

Volcano<- readr::read_csv("https://raw.githubusercontent.com/rfordatascience/tidytuesday/master/data/2020/2020-05-12/volcano.csv")

Volcano

## # A tibble: 958 x 26
##    volcano_number volcano_name primary_volcano~ last_eruption_y~ country region
##             <dbl> <chr>        <chr>            <chr>            <chr>   <chr> 
##  1         283001 Abu          Shield(s)        -6850            Japan   Japan~
##  2         355096 Acamarachi   Stratovolcano    Unknown          Chile   South~
##  3         342080 Acatenango   Stratovolcano(e~ 1972             Guatem~ Mxic~
##  4         213004 Acigol-Nevs~ Caldera          -2080            Turkey  Medit~
##  5         321040 Adams        Stratovolcano    950              United~ Canad~
##  6         283170 Adatarayama  Stratovolcano(e~ 1996             Japan   Japan~
##  7         221170 Adwa         Stratovolcano    Unknown          Ethiop~ Afric~
##  8         221110 Afdera       Stratovolcano    Unknown          Ethiop~ Afric~
##  9         284160 Agrigan      Stratovolcano    1917             United~ Japan~
## 10         342100 Agua         Stratovolcano    Unknown          Guatem~ Mxic~
## # ... with 948 more rows, and 20 more variables: subregion <chr>,
## #   latitude <dbl>, longitude <dbl>, elevation <dbl>, tectonic_settings <chr>,
## #   evidence_category <chr>, major_rock_1 <chr>, major_rock_2 <chr>,
## #   major_rock_3 <chr>, major_rock_4 <chr>, major_rock_5 <chr>,
## #   minor_rock_1 <chr>, minor_rock_2 <chr>, minor_rock_3 <chr>,
## #   minor_rock_4 <chr>, minor_rock_5 <chr>, population_within_5_km <dbl>,
## #   population_within_10_km <dbl>, population_within_30_km <dbl>,
## #   population_within_100_km <dbl>
…
Modeling Proces.

There is no sufficient data to split into train and test, so we can do a bootstrap

library(tidymodels)

Volcano_boot<- bootstraps(Volcano_df)
Volcano_boot

## # Bootstrap sampling 
## # A tibble: 25 x 2
##    splits            id         
##    <list>            <chr>      
##  1 <split [958/346]> Bootstrap01
##  2 <split [958/341]> Bootstrap02
##  3 <split [958/348]> Bootstrap03
##  4 <split [958/349]> Bootstrap04
##  5 <split [958/354]> Bootstrap05
##  6 <split [958/345]> Bootstrap06
##  7 <split [958/353]> Bootstrap07
##  8 <split [958/366]> Bootstrap08
##  9 <split [958/346]> Bootstrap09
## 10 <split [958/361]> Bootstrap10
## # ... with 15 more rows
…
Notice how many new info we have, the new rows are because the oversampling and columns by the new Dummy variables

juice(Volcano_prep)

## # A tibble: 1,844 x 14
##    volcano_number latitude longitude elevation volcano_type tectonic_settin~
##             <dbl>    <dbl>     <dbl>     <dbl> <fct>                   <dbl>
##  1         213004   0.746      0.101   -0.131  Other                  -0.289
##  2         284141   0.172      1.11    -1.39   Other                  -0.289
##  3         282080   0.526      0.975   -0.535  Other                  -0.289
##  4         285070   0.899      1.10    -0.263  Other                  -0.289
##  5         221060  -0.0377     0.155   -0.920  Other                  -0.289
##  6         273088   0.0739     0.888    0.330  Other                  -0.289
##  7         266020  -0.451      0.918   -0.0514 Other                  -0.289
##  8         257040  -0.989      1.32    -0.380  Other                  -0.289
##  9         354004  -0.963     -0.873    2.03   Other                  -0.289
## 10         312090   1.33      -1.65    -0.375  Other                  -0.289
## # ... with 1,834 more rows, and 8 more variables:
## #   tectonic_settings_Rift.zone...Oceanic.crust....15.km. <dbl>,
## #   tectonic_settings_Subduction.zone...Continental.crust...25.km. <dbl>,
## #   tectonic_settings_Subduction.zone...Oceanic.crust....15.km. <dbl>,
## #   tectonic_settings_other <dbl>, major_rock_1_Basalt...Picro.Basalt <dbl>,
## #   major_rock_1_Dacite <dbl>,
## #   major_rock_1_Trachybasalt...Tephrite.Basanite <dbl>,
## #   major_rock_1_other <dbl>
…
Results

Volcano_res<-
  fit_resamples(
  Volcano_wf,
  resamples= Volcano_boot, #we have 25 resamples 
  control= control_resamples(save_pred = TRUE)
)

Volcano_res

## # Resampling results
## # Bootstrap sampling 
## # A tibble: 25 x 5
##    splits           id          .metrics        .notes         .predictions     
##    <list>           <chr>       <list>          <list>         <list>           
##  1 <split [958/346~ Bootstrap01 <tibble [2 x 3~ <tibble [0 x ~ <tibble [346 x 7~
##  2 <split [958/341~ Bootstrap02 <tibble [2 x 3~ <tibble [0 x ~ <tibble [341 x 7~
##  3 <split [958/348~ Bootstrap03 <tibble [2 x 3~ <tibble [0 x ~ <tibble [348 x 7~
##  4 <split [958/349~ Bootstrap04 <tibble [2 x 3~ <tibble [0 x ~ <tibble [349 x 7~
##  5 <split [958/354~ Bootstrap05 <tibble [2 x 3~ <tibble [0 x ~ <tibble [354 x 7~
##  6 <split [958/345~ Bootstrap06 <tibble [2 x 3~ <tibble [0 x ~ <tibble [345 x 7~
##  7 <split [958/353~ Bootstrap07 <tibble [2 x 3~ <tibble [0 x ~ <tibble [353 x 7~
##  8 <split [958/366~ Bootstrap08 <tibble [2 x 3~ <tibble [0 x ~ <tibble [366 x 7~
##  9 <split [958/346~ Bootstrap09 <tibble [2 x 3~ <tibble [0 x ~ <tibble [346 x 7~
## 10 <split [958/361~ Bootstrap10 <tibble [2 x 3~ <tibble [0 x ~ <tibble [361 x 7~
## # ... with 15 more rows
…
Now a final map

Volcano_predictions<- 
  Volcano_res %>% 
  collect_predictions() %>% 
  mutate(Correct = volcano_type == .pred_class) %>% 
  left_join(Volcano_df %>% 
              mutate(.row= row_number()))
Volcano_predictions

## # A tibble: 8,746 x 15
##    id    .pred_Other .pred_Shield `.pred_Stratovo~ `.pred_Volcanic~  .row
##    <chr>       <dbl>        <dbl>            <dbl>            <dbl> <int>
##  1 Boot~       0.161       0.0246            0.712           0.102      3
##  2 Boot~       0.169       0.0970            0.711           0.0231     8
##  3 Boot~       0.230       0.177             0.424           0.168      9
##  4 Boot~       0.164       0.0260            0.661           0.149     10
##  5 Boot~       0.594       0.0192            0.352           0.0341    12
##  6 Boot~       0.350       0.0193            0.603           0.0284    13
##  7 Boot~       0.375       0.0531            0.545           0.0268    15
##  8 Boot~       0.202       0.0508            0.721           0.0266    17
##  9 Boot~       0.216       0.0369            0.718           0.0291    18
## 10 Boot~       0.429       0.213             0.318           0.0404    19
## # ... with 8,736 more rows, and 9 more variables: .pred_class <fct>,
## #   volcano_type <fct>, Correct <lgl>, volcano_number <dbl>, latitude <dbl>,
## #   longitude <dbl>, elevation <dbl>, tectonic_settings <fct>,
## #   major_rock_1 <fct>
…
